…
- Die folgenden Argumente beschreiben, wie der Dataframe umgeformt werden soll (ohne Anführungsstriche).

- Soll innerhalb der Funktionen auf Variablen aus dem Dataframe zugegriffen werden, kann man diese direkt ansprechen (also einfach nur `var_name` und **nicht** `data$var_name` oder `"var_name"`).

- Das Ergebnis ist immer ein Dataframe.


## Datensatz für dieses Kapitel

Als Datensatz dient in diesem Kapitel der "starwars"-Datensatz, der im Paket dplyr enthalten ist. Er enthält verschiedene Merkmale von Starwars-Figuren:


```
## # A tibble: 87 x 14
##    name  height  mass hair_color skin_color eye_color birth_year sex   gender
##    <chr>  <int> <dbl> <chr>      <chr>      <chr>          <dbl> <chr> <chr> 
##  1 Luke…    172    77 blond      fair       blue            19   male  mascu…
##  2 C-3PO    167    75 <NA>       gold       yellow         112   none  mascu…
##  3 R2-D2     96    32 <NA>       white, bl… red             33   none  mascu…
##  4 Dart…    202   136 none       white      yellow          41.9 male  mascu…
##  5 Leia…    150    49 brown      light      brown           19   fema… femin…
##  6 Owen…    178   120 brown, gr… light      blue            52   male  mascu…
##  7 Beru…    165    75 brown      light      blue            47   fema… femin…
##  8 R5-D4     97    32 <NA>       white, red red             NA   none  mascu…
##  9 Bigg…    183    84 black      light      brown           24   male  mascu…
## 10 Obi-…    182    77 auburn, w… fair       blue-gray       57   male  mascu…
## # … with 77 more rows, and 5 more variables: homeworld <chr>, species <chr>,
## #   films <list>, vehicles <list>, starships <list>
```
…
Da die Größe dafür in Metern angegeben sein muss, im Starwars-Datensatz aber nur cm erfasst sind, müssen wir zusätzlich auch noch die cm in Meter umrechnen.

Damit wir die Daten im Anschluss an die Berechnung schön vergleichen können, wähle ich die beteiligten Variablen nach der Berechnung aus und sortiere nach dem BMI.


```r
# BMI berechnen
starwars %>% 
  mutate(bmi = mass / (height/100)^2) %>% 
  select(name:mass, bmi) %>% 
  arrange(desc(bmi))
```

```
## # A tibble: 87 x 4
##    name                  height  mass   bmi
##    <chr>                  <int> <dbl> <dbl>
##  1 Jabba Desilijic Tiure    175  1358 443. 
##  2 Dud Bolt                  94    45  50.9
##  3 Yoda                      66    17  39.0
##  4 Owen Lars                178   120  37.9
##  5 IG-88                    200   140  35  
##  6 R2-D2                     96    32  34.7
##  7 Grievous                 216   159  34.1
##  8 R5-D4                     97    32  34.0
##  9 Jek Tono Porkins         180   110  34.0
## 10 Darth Vader              202   136  33.3
## # … with 77 more rows
```
…
## Datensatz für dieses Kapitel

Als Datensatz dient in diesem Kapitel wieder der "starwars"-Datensatz, der im Paket dplyr enthalten ist. Er enthält verschiedene Merkmale von Starwars-Figuren:


```r
starwars
```

```
## # A tibble: 87 x 14
##    name  height  mass hair_color skin_color eye_color birth_year sex   gender
##    <chr>  <int> <dbl> <chr>      <chr>      <chr>          <dbl> <chr> <chr> 
##  1 Luke…    172    77 blond      fair       blue            19   male  mascu…
##  2 C-3PO    167    75 <NA>       gold       yellow         112   none  mascu…
##  3 R2-D2     96    32 <NA>       white, bl… red             33   none  mascu…
##  4 Dart…    202   136 none       white      yellow          41.9 male  mascu…
##  5 Leia…    150    49 brown      light      brown           19   fema… femin…
##  6 Owen…    178   120 brown, gr… light      blue            52   male  mascu…
##  7 Beru…    165    75 brown      light      blue            47   fema… femin…
##  8 R5-D4     97    32 <NA>       white, red red             NA   none  mascu…
##  9 Bigg…    183    84 black      light      brown           24   male  mascu…
## 10 Obi-…    182    77 auburn, w… fair       blue-gray       57   male  mascu…
## # … with 77 more rows, and 5 more variables: homeworld <chr>, species <chr>,
## #   films <list>, vehicles <list>, starships <list>
```
…
