Kapitel 12 Varianzanalyse | R Kompendium für die kommunikationswissenschaftliche Statistik- und Datenanalyse-Ausbildung am IJK Hannover
…
Die Die Daten der Abschlussarbeit von Herrn Reichelt liegen im SPSS-Format .sav. vor. Sie können über das Paket haven geladen werden. Da wir die unabhängigen Variablen für die Varianzanalyse in R als Faktoren benötigen, wandeln wir diese gleich im Anschluss an den Ladevorgang direkt in das benötigte Format um.

df <- haven::read_sav("data/BA–Carsten Reichelt.sav", user_na = FALSE) %>% 
  mutate(Schwierigkeitsgrad = factor(Schwierigkeitsgrad, 
                                     labels = c("einfach", "mittel", "schwer"), 
                                     ordered = TRUE),
         Wettkampfpraeferenz = factor( v_12_rec,
                                       labels = c("geringe Wettkampfpräferenz", "hohe Wettkampfpräferenz"),
                                       ordered = TRUE)) %>% 
  select(lfdn, Schwierigkeitsgrad, Highscore, Wettkampfpraeferenz)

df

## # A tibble: 248 x 4
##     lfdn Schwierigkeitsgrad Highscore Wettkampfpraeferenz       
##    <dbl> <ord>                  <dbl> <ord>                     
##  1    91 mittel                  1950 hohe Wettkampfpräferenz   
##  2    92 einfach                 3890 geringe Wettkampfpräferenz
##  3    93 einfach                 5200 hohe Wettkampfpräferenz   
##  4    98 mittel                  3930 geringe Wettkampfpräferenz
##  5   104 schwer                  1660 geringe Wettkampfpräferenz
##  6   106 mittel                  3280 hohe Wettkampfpräferenz   
##  7   113 einfach                 9000 hohe Wettkampfpräferenz   
##  8   114 einfach                 7920 hohe Wettkampfpräferenz   
##  9   123 mittel                  4800 geringe Wettkampfpräferenz
## 10   135 einfach                 5520 geringe Wettkampfpräferenz
## # … with 238 more rows
…
